\relax 
\providecommand\hyper@newdestlabel[2]{}
\catcode `"\active 
\providecommand\HyperFirstAtBeginDocument{\AtBeginDocument}
\HyperFirstAtBeginDocument{\ifx\hyper@anchor\@undefined
\global\let\oldcontentsline\contentsline
\gdef\contentsline#1#2#3#4{\oldcontentsline{#1}{#2}{#3}}
\global\let\oldnewlabel\newlabel
\gdef\newlabel#1#2{\newlabelxx{#1}#2}
\gdef\newlabelxx#1#2#3#4#5#6{\oldnewlabel{#1}{{#2}{#3}}}
\AtEndDocument{\ifx\hyper@anchor\@undefined
\let\contentsline\oldcontentsline
\let\newlabel\oldnewlabel
\fi}
\fi}
\global\let\hyper@last\relax 
\gdef\HyperFirstAtBeginDocument#1{#1}
\providecommand\HyField@AuxAddToFields[1]{}
\providecommand\HyField@AuxAddToCoFields[2]{}
\providecommand \oddpage@label [2]{}
\babel@aux{brazil}{}
\@writefile{toc}{\contentsline {section}{\numberline {1}Bases de Dados}{1}{section.1}}
\@writefile{lot}{\contentsline {table}{\numberline {1}{\ignorespaces Confer\IeC {\^e}ncias nas \IeC {\'a}reas de Intelig\IeC {\^e}ncia Artificial, Vis\IeC {\~a}o Computacional e Morfologia Matem\IeC {\'a}tica}}{1}{table.1}}
\newlabel{table:segnet_parameters}{{1}{1}{Conferências nas áreas de Inteligência Artificial, Visão Computacional e Morfologia Matemática}{table.1}{}}
\@writefile{toc}{\contentsline {section}{\numberline {2}Quest\IeC {\~o}es de Pesquisa}{1}{section.2}}
\@writefile{toc}{\contentsline {section}{\numberline {3}\textit  {String(s)} de busca}{1}{section.3}}
\@writefile{toc}{\contentsline {section}{\numberline {4}Revis\IeC {\~a}o Sistem\IeC {\'a}tica}{1}{section.4}}
