\begin{thebibliography}{10}

\bibitem{GARTNER201710}
Gartner forecasts worldwide public cloud services revenue to reach \$ 260
  billion in 2017.
\newblock {\em Gartner Newsroom}, Oct 2017.

\bibitem{GARTNER201709}
Gartner says worldwide iaas public cloud services market grew 31 percent in
  2016.
\newblock {\em Gartner Newsroom}, Sep 2017.

\bibitem{SYSBENCH}
{Alexey Kopytov}.
\newblock Sysbench - https://github.com/akopytov/sysbench.

\bibitem{AMAZON_INST}
Amazon.
\newblock Definição de preço do amazon ec2, 2018.

\bibitem{VCC2010}
Michael Armbrust, Armando Fox, Rean Griffith, Anthony~D. Joseph, Randy Katz,
  Andy Konwinski, Gunho Lee, David Patterson, Ariel Rabkin, Ion Stoica, and
  Matei Zaharia.
\newblock A view of cloud computing.
\newblock {\em Commun. ACM}, 53(4):50--58, 4 2010.

\bibitem{AVRAM2014}
M.G. Avram.
\newblock Advantages and challenges of adopting cloud computing from an
  enterprise perspective.
\newblock {\em Procedia Technology}, 12:529 -- 534, 2014.
\newblock The 7th International Conference Interdisciplinarity in Engineering,
  INTER-ENG 2013, 10-11 October 2013, Petru Maior University of Tirgu Mures,
  Romania.

\bibitem{BRASDO_APACHE}
brasdo.com.
\newblock Estatísticas da internet brasileira, 2018.

\bibitem{DBENGINES}
DB-Engines.
\newblock Db-engines ranking, 2018.

\bibitem{HASHEM2015}
Ibrahim Abaker~Targio Hashem, Ibrar Yaqoob, Nor~Badrul Anuar, Salimah Mokhtar,
  Abdullah Gani, and Samee~Ullah Khan.
\newblock The rise of “big data” on cloud computing: Review and open
  research issues.
\newblock {\em Information Systems}, 47:98 -- 115, 2015.

\bibitem{IAASCLOUD2014}
Alexandru Iosup, Radu Prodan, and Dick" Epema.
\newblock {\em IaaS Cloud Benchmarking: Approaches, Challenges, and
  Experience}, pages 83--104.
\newblock Springer New York, New York, NY, 2014.

\bibitem{AUTBEN2015}
Nane Kratzke and Peter-Christian Quint.
\newblock About automatic benchmarking of iaas cloud service providers for a
  world of container clusters.
\newblock 1:16--34, 06 2015.

\bibitem{WHATPAYING2011}
A.~Lenk, M.~Menzel, J.~Lipsky, S.~Tai, and P.~Offermann.
\newblock What are you paying for? performance benchmarking for
  infrastructure-as-a-service offerings.
\newblock In {\em 2011 IEEE 4th International Conference on Cloud Computing},
  pages 484--491, July 2011.

\bibitem{MYSQL}
MySQL.
\newblock Mysql, 2018.

\bibitem{APACHE}
OpenBenchmarking.org.
\newblock Apache benchmark, 2018.

\bibitem{CACHEBENCH}
OpenBenchmarking.org.
\newblock Cachebench, 2018.

\bibitem{GZIP}
OpenBenchmarking.org.
\newblock Gzip compression, 2018.

\bibitem{SCIMARK}
OpenBenchmarking.org.
\newblock Java scimark, 2018.

\bibitem{PHPBENCH}
OpenBenchmarking.org.
\newblock Phpbench, 2018.

\bibitem{RAMSPEED}
OpenBenchmarking.org.
\newblock Ramspeed smp, 2018.

\bibitem{MPLAYER}
OpenBenchmarking.org.
\newblock Timed mplayer compilation, 2018.

\bibitem{OPENBENCH}
{Phoronix Media}.
\newblock Openbenchmarking.org.

\bibitem{PHORONIX}
{Phoronix Media}.
\newblock Phoronix test suite - http://www.phoronix-test-suite.com/.

\bibitem{PHPNET}
PHPNET.
\newblock Php:hypertext processor, 2018.

\bibitem{CLOUDWBE2015}
Joel Scheuner, J\"{u}rgen Cito, Philipp Leitner, and Harald Gall.
\newblock Cloud workbench: Benchmarking iaas providers based on
  infrastructure-as-code.
\newblock In {\em Proceedings of the 24th International Conference on World
  Wide Web}, WWW '15 Companion, pages 239--242, New York, NY, USA, 2015. ACM.

\end{thebibliography}
