\relax 
\citation{HASHEM2015}
\citation{HASHEM2015}
\citation{VCC2010}
\citation{HASHEM2015}
\citation{HASHEM2015}
\citation{AVRAM2014}
\citation{AUTBEN2015}
\citation{GARTNER201710}
\citation{GARTNER201710}
\@writefile{toc}{\contentsline {section}{\numberline {I}Introdu\IeC {\c c}\IeC {\~a}o}{1}}
\newlabel{sec:introducao}{{I}{1}}
\citation{GARTNER201710}
\citation{GARTNER201710}
\citation{GARTNER201709}
\citation{GARTNER201709}
\citation{AUTBEN2015}
\citation{AUTBEN2015}
\citation{AUTBEN2015}
\citation{AUTBEN2015}
\citation{CLOUDWBE2015}
\citation{IAASCLOUD2014}
\citation{WHATPAYING2011}
\citation{SYSBENCH}
\citation{PHORONIX}
\@writefile{lot}{\contentsline {table}{\numberline {I}{\ignorespaces Previs\IeC {\~a}o de Revenda de servi\IeC {\c c}os p\IeC {\'u}blicos na nuvem (em bilh\IeC {\~o}es de d\IeC {\'o}lares) - Adaptado de \cite  {GARTNER201710}}}{2}}
\newlabel{table:GARTNER_CLOUD}{{I}{2}}
\@writefile{lot}{\contentsline {table}{\numberline {II}{\ignorespaces Previs\IeC {\~a}o de Revenda de servi\IeC {\c c}os p\IeC {\'u}blicos na nuvem (em bilh\IeC {\~o}es de d\IeC {\'o}lares) - Adaptado de \cite  {GARTNER201709}}}{2}}
\newlabel{table:GARTNER_IAAS}{{II}{2}}
\@writefile{toc}{\contentsline {section}{\numberline {II}Background}{2}}
\newlabel{sec:background}{{II}{2}}
\@writefile{toc}{\contentsline {subsection}{\numberline {\unhbox \voidb@x \hbox {II-A}}Panorama do \textit  {Cloud Computing}}{2}}
\newlabel{ssec:panorama_cloud}{{\unhbox \voidb@x \hbox {II-A}}{2}}
\@writefile{toc}{\contentsline {subsection}{\numberline {\unhbox \voidb@x \hbox {II-B}}Motiva\IeC {\c c}\IeC {\~a}o}{2}}
\newlabel{ssec:motivacao}{{\unhbox \voidb@x \hbox {II-B}}{2}}
\@writefile{toc}{\contentsline {subsection}{\numberline {\unhbox \voidb@x \hbox {II-C}}Objetivos}{2}}
\newlabel{ssec:objetivos}{{\unhbox \voidb@x \hbox {II-C}}{2}}
\@writefile{toc}{\contentsline {section}{\numberline {III}Materiais e M\IeC {\'e}todos}{2}}
\newlabel{sec:mat_metodos}{{III}{2}}
\citation{OPENBENCH}
\citation{GZIP}
\citation{CACHEBENCH}
\citation{MPLAYER}
\citation{SCIMARK}
\citation{RAMSPEED}
\citation{PHPBENCH}
\citation{APACHE}
\citation{AMAZON_INST}
\citation{AMAZON_INST}
\citation{AMAZON_INST}
\citation{AMAZON_INST}
\citation{AMAZON_INST}
\@writefile{toc}{\contentsline {subsection}{\numberline {\unhbox \voidb@x \hbox {III-A}}Sysbench}{3}}
\newlabel{ssec:sysbenc}{{\unhbox \voidb@x \hbox {III-A}}{3}}
\@writefile{toc}{\contentsline {subsection}{\numberline {\unhbox \voidb@x \hbox {III-B}}Phoronix}{3}}
\newlabel{ssec:phoronix}{{\unhbox \voidb@x \hbox {III-B}}{3}}
\@writefile{lot}{\contentsline {table}{\numberline {III}{\ignorespaces Detalhes das inst\IeC {\^a}ncias da Amazon avaliadas \cite  {AMAZON_INST}}}{3}}
\newlabel{table:AMAZON_INSTANCIAS}{{III}{3}}
\@writefile{toc}{\contentsline {subsection}{\numberline {\unhbox \voidb@x \hbox {III-C}}Correla\IeC {\c c}\IeC {\~a}o entre Benchmarks}{3}}
\newlabel{ssec:corre_benchmarks}{{\unhbox \voidb@x \hbox {III-C}}{3}}
\@writefile{toc}{\contentsline {subsection}{\numberline {\unhbox \voidb@x \hbox {III-D}}Inst\IeC {\^a}ncias}{3}}
\newlabel{ssec:instancias}{{\unhbox \voidb@x \hbox {III-D}}{3}}
\@writefile{toc}{\contentsline {section}{\numberline {IV}Testes, Resultados e Discuss\IeC {\~o}es}{3}}
\newlabel{sec:testes}{{IV}{3}}
\@writefile{toc}{\contentsline {subsection}{\numberline {\unhbox \voidb@x \hbox {IV-A}}Benchmark de CPU}{3}}
\newlabel{ssec:bench_cpu}{{\unhbox \voidb@x \hbox {IV-A}}{3}}
\@writefile{lof}{\contentsline {figure}{\numberline {1}{\ignorespaces Avalia\IeC {\c c}\IeC {\~a}o de desempenho (eventos/s) em rela\IeC {\c c}\IeC {\~a}o ao n\IeC {\'u}mero de threads, utilizando o \textit  {benchmark} Sysbench CPU}}{4}}
\newlabel{figure:SYS_CPU1}{{1}{4}}
\@writefile{lof}{\contentsline {figure}{\numberline {2}{\ignorespaces Lat\IeC {\^e}ncia m\IeC {\'e}dia de CPU, de acordo com o n\IeC {\'u}mero de threads, utilizando o \textit  {benchmark} Sysbench CPU}}{4}}
\newlabel{figure:SYS_CPU2}{{2}{4}}
\@writefile{lof}{\contentsline {figure}{\numberline {3}{\ignorespaces Avalia\IeC {\c c}\IeC {\~a}o de desempenho utilizando \textit  {benchmark} Phoronix/Gzip Compression}}{4}}
\newlabel{figure:PHO_GZIP}{{3}{4}}
\@writefile{lof}{\contentsline {figure}{\numberline {4}{\ignorespaces Avalia\IeC {\c c}\IeC {\~a}o de desempenho utilizando \textit  {benchmark} Phoronix/Timed MPlayer Compilation}}{4}}
\newlabel{figure:PHO_MPLAYER}{{4}{4}}
\@writefile{lof}{\contentsline {figure}{\numberline {5}{\ignorespaces Avalia\IeC {\c c}\IeC {\~a}o de desempenho utilizando \textit  {benchmark} Phoronix/Java Scimark2}}{4}}
\newlabel{figure:PHO_SCIMARK}{{5}{4}}
\citation{CACHEBENCH}
\citation{RAMSPEED}
\@writefile{lof}{\contentsline {figure}{\numberline {6}{\ignorespaces Avalia\IeC {\c c}\IeC {\~a}o de desempenho (MB/s) em rela\IeC {\c c}\IeC {\~a}o ao n\IeC {\'u}mero de threads e opera\IeC {\c c}\IeC {\~o}es de leitura/escrita, utilizando o \textit  {benchmark} Sysbench Memory}}{5}}
\newlabel{figure:SYS_MEM}{{6}{5}}
\@writefile{toc}{\contentsline {subsection}{\numberline {\unhbox \voidb@x \hbox {IV-B}}Benchmark de Mem\IeC {\'o}ria Principal e Cache}{5}}
\newlabel{ssec:bench_mem}{{\unhbox \voidb@x \hbox {IV-B}}{5}}
\@writefile{lof}{\contentsline {figure}{\numberline {7}{\ignorespaces Avalia\IeC {\c c}\IeC {\~a}o de desempenho utilizando \textit  {benchmark} Phoronix/Cachebench}}{5}}
\newlabel{figure:PHO_CACHEBENCH}{{7}{5}}
\@writefile{lof}{\contentsline {figure}{\numberline {8}{\ignorespaces Avalia\IeC {\c c}\IeC {\~a}o de desempenho utilizando \textit  {benchmark} Phoronix/RAMSpeed}}{5}}
\newlabel{figure:PHO_RAMSPEED}{{8}{5}}
\citation{MYSQL}
\citation{DBENGINES}
\citation{PHPNET}
\@writefile{lof}{\contentsline {figure}{\numberline {9}{\ignorespaces Avalia\IeC {\c c}\IeC {\~a}o de desempenho para leitura em rela\IeC {\c c}\IeC {\~a}o ao n\IeC {\'u}mero de threads, utilizando o \textit  {benchmark} Sysbench IO}}{6}}
\newlabel{figure:SYS_IO1}{{9}{6}}
\@writefile{toc}{\contentsline {subsection}{\numberline {\unhbox \voidb@x \hbox {IV-C}}Benchmark de IO}{6}}
\newlabel{ssec:bench_io}{{\unhbox \voidb@x \hbox {IV-C}}{6}}
\@writefile{toc}{\contentsline {subsection}{\numberline {\unhbox \voidb@x \hbox {IV-D}}Benchmark de aplica\IeC {\c c}\IeC {\~o}es comerciais}{6}}
\newlabel{ssec:bench_aplic}{{\unhbox \voidb@x \hbox {IV-D}}{6}}
\@writefile{lof}{\contentsline {figure}{\numberline {10}{\ignorespaces Avalia\IeC {\c c}\IeC {\~a}o de desempenho de transa\IeC {\c c}\IeC {\~o}es, de acordo com o n\IeC {\'u}mero de threads, utilizando o \textit  {benchmark} Sysbench MySQL}}{6}}
\newlabel{figure:SYS_MYSQL1}{{10}{6}}
\newlabel{sssec:bench_mysql}{{\unhbox \voidb@x \hbox {IV-D}1}{6}}
\@writefile{toc}{\contentsline {subsubsection}{\numberline {\unhbox \voidb@x \hbox {IV-D}1}MySQL}{6}}
\newlabel{sssec:bench_php}{{\unhbox \voidb@x \hbox {IV-D}2}{6}}
\@writefile{toc}{\contentsline {subsubsection}{\numberline {\unhbox \voidb@x \hbox {IV-D}2}PHP}{6}}
\citation{APACHE}
\citation{BRASDO_APACHE}
\@writefile{lof}{\contentsline {figure}{\numberline {11}{\ignorespaces Pontua\IeC {\c c}\IeC {\~a}o das inst\IeC {\^a}ncias no \textit  {benchmark} Phoronix/PHPBench}}{7}}
\newlabel{figure:PHO_PHPBENCH}{{11}{7}}
\newlabel{sssec:bench_apache}{{\unhbox \voidb@x \hbox {IV-D}3}{7}}
\@writefile{toc}{\contentsline {subsubsection}{\numberline {\unhbox \voidb@x \hbox {IV-D}3}Apache}{7}}
\@writefile{toc}{\contentsline {subsection}{\numberline {\unhbox \voidb@x \hbox {IV-E}}Avalia\IeC {\c c}\IeC {\~a}o da M\IeC {\'e}trica de Desempenho da Amazon}{7}}
\newlabel{ssec:metrica_amazon}{{\unhbox \voidb@x \hbox {IV-E}}{7}}
\@writefile{lof}{\contentsline {figure}{\numberline {12}{\ignorespaces Requisi\IeC {\c c}\IeC {\~o}es por segundo inst\IeC {\^a}ncias no \textit  {benchmark} Phoronix/Apache}}{7}}
\newlabel{figure:PHO_APACHE}{{12}{7}}
\bibstyle{plain}
\bibdata{biblio}
\bibcite{GARTNER201710}{1}
\bibcite{GARTNER201709}{2}
\bibcite{SYSBENCH}{3}
\bibcite{AMAZON_INST}{4}
\bibcite{VCC2010}{5}
\bibcite{AVRAM2014}{6}
\bibcite{BRASDO_APACHE}{7}
\bibcite{DBENGINES}{8}
\bibcite{HASHEM2015}{9}
\bibcite{IAASCLOUD2014}{10}
\bibcite{AUTBEN2015}{11}
\bibcite{WHATPAYING2011}{12}
\bibcite{MYSQL}{13}
\bibcite{APACHE}{14}
\bibcite{CACHEBENCH}{15}
\bibcite{GZIP}{16}
\bibcite{SCIMARK}{17}
\bibcite{PHPBENCH}{18}
\bibcite{RAMSPEED}{19}
\bibcite{MPLAYER}{20}
\bibcite{OPENBENCH}{21}
\bibcite{PHORONIX}{22}
\bibcite{PHPNET}{23}
\bibcite{CLOUDWBE2015}{24}
\@writefile{lof}{\contentsline {figure}{\numberline {13}{\ignorespaces Compara\IeC {\c c}\IeC {\~a}o de desempenho no \textit  {benchmark} Sysbench-CPU em rela\IeC {\c c}\IeC {\~a}o aos valores ECU disponibilizados pela Amazon}}{8}}
\newlabel{figure:ECU_CPU}{{13}{8}}
\@writefile{lof}{\contentsline {figure}{\numberline {14}{\ignorespaces Compara\IeC {\c c}\IeC {\~a}o de desempenho entre todos os \textit  {benchmarks} de CPU em rela\IeC {\c c}\IeC {\~a}o aos valores ECU disponibilizados pela Amazon}}{8}}
\newlabel{figure:ECU_BENCHS}{{14}{8}}
\@writefile{toc}{\contentsline {section}{\numberline {V}Conclus\IeC {\~a}o}{8}}
\newlabel{sec:conclusao}{{V}{8}}
\@writefile{toc}{\contentsline {section}{\numberline {VI}Refer\IeC {\^e}ncias}{8}}
\@writefile{toc}{\contentsline {section}{References}{8}}
